{
    "modules": [
        {
            "config": {
                "position": [
                    350,
                    63
                ]
            },
            "name": "New Model Object",
            "value": {
                "actionGroup": {
                    "_default0_list": true,
                    "_default1_show": true,
                    "_default2_new_create": false,
                    "_default3_edit_update": false,
                    "_default4_delete": false,
                    "customActions": []
                },
                "name": "Product",
                "objectsettings": {
                    "addDeletedField": true,
                    "addHiddenField": true,
                    "addStarttimeEndtimeFields": true,
                    "aggregateRoot": true,
                    "categorizable": true,
                    "description": "",
                    "mapToTable": "",
                    "parentClass": "",
                    "sorting": false,
                    "type": "Entity",
                    "uid": "166963226953"
                },
                "propertyGroup": {
                    "properties": [
                        {
                            "allowedFileTypes": "",
                            "maxItems": "1",
                            "propertyDescription": "",
                            "propertyIsExcludeField": true,
                            "propertyIsL10nModeExclude": false,
                            "propertyIsRequired": false,
                            "propertyName": "title",
                            "propertyType": "String",
                            "uid": "1446003651385"
                        },
                        {
                            "allowedFileTypes": "",
                            "maxItems": "1",
                            "propertyDescription": "",
                            "propertyIsExcludeField": true,
                            "propertyIsL10nModeExclude": false,
                            "propertyIsRequired": false,
                            "propertyName": "description",
                            "propertyType": "RichText",
                            "uid": "668700170617"
                        },
                        {
                            "allowedFileTypes": "",
                            "maxItems": "1",
                            "propertyDescription": "",
                            "propertyIsExcludeField": true,
                            "propertyIsL10nModeExclude": false,
                            "propertyIsRequired": false,
                            "propertyName": "price",
                            "propertyType": "Float",
                            "uid": "1545835635770"
                        },
                        {
                            "allowedFileTypes": "",
                            "maxItems": "1",
                            "propertyDescription": "",
                            "propertyIsExcludeField": true,
                            "propertyIsL10nModeExclude": false,
                            "propertyIsRequired": true,
                            "propertyName": "size",
                            "propertyType": "String",
                            "uid": "810568948517"
                        }
                    ]
                },
                "relationGroup": {
                    "relations": [
                        {
                            "foreignRelationClass": "",
                            "lazyLoading": false,
                            "propertyIsExcludeField": true,
                            "relationDescription": "",
                            "relationName": "productColor",
                            "relationType": "manyToMany",
                            "relationWire": "[wired]",
                            "renderType": "selectMultipleSideBySide",
                            "uid": "622144583497"
                        }
                    ]
                }
            }
        },
        {
            "config": {
                "position": [
                    600,
                    67
                ]
            },
            "name": "New Model Object",
            "value": {
                "actionGroup": {
                    "_default0_list": false,
                    "_default1_show": false,
                    "_default2_new_create": false,
                    "_default3_edit_update": false,
                    "_default4_delete": false,
                    "customActions": []
                },
                "name": "Color",
                "objectsettings": {
                    "addDeletedField": true,
                    "addHiddenField": true,
                    "addStarttimeEndtimeFields": true,
                    "aggregateRoot": true,
                    "categorizable": false,
                    "description": "",
                    "mapToTable": "",
                    "parentClass": "",
                    "sorting": false,
                    "type": "Entity",
                    "uid": "201833567233"
                },
                "propertyGroup": {
                    "properties": [
                        {
                            "allowedFileTypes": "",
                            "maxItems": "1",
                            "propertyDescription": "",
                            "propertyIsExcludeField": true,
                            "propertyIsL10nModeExclude": false,
                            "propertyIsRequired": false,
                            "propertyName": "title",
                            "propertyType": "String",
                            "uid": "760915179496"
                        },
                        {
                            "allowedFileTypes": "",
                            "maxItems": "1",
                            "propertyDescription": "",
                            "propertyIsExcludeField": true,
                            "propertyIsL10nModeExclude": false,
                            "propertyIsRequired": false,
                            "propertyName": "subtitle",
                            "propertyType": "String",
                            "uid": "760915179496"
                        }
                    ]
                },
                "relationGroup": {
                    "relations": []
                }
            }
        },
        {
            "config": {
                "position": [
                    80,
                    57
                ]
            },
            "name": "New Model Object",
            "value": {
                "actionGroup": {
                    "_default0_list": false,
                    "_default1_show": false,
                    "_default2_new_create": true,
                    "_default3_edit_update": false,
                    "_default4_delete": false,
                    "customActions": [
                        "userOrders"
                    ]
                },
                "name": "Order",
                "objectsettings": {
                    "addDeletedField": true,
                    "addHiddenField": true,
                    "addStarttimeEndtimeFields": false,
                    "aggregateRoot": true,
                    "categorizable": false,
                    "description": "",
                    "mapToTable": "",
                    "parentClass": "",
                    "sorting": false,
                    "type": "Entity",
                    "uid": "1415844169053"
                },
                "propertyGroup": {
                    "properties": [
                        {
                            "allowedFileTypes": "",
                            "maxItems": "1",
                            "propertyDescription": "",
                            "propertyIsExcludeField": false,
                            "propertyIsL10nModeExclude": false,
                            "propertyIsRequired": false,
                            "propertyName": "orderDate",
                            "propertyType": "NativeDateTime",
                            "uid": "602985133569"
                        },
                        {
                            "allowedFileTypes": "",
                            "maxItems": "1",
                            "propertyDescription": "",
                            "propertyIsExcludeField": false,
                            "propertyIsL10nModeExclude": false,
                            "propertyIsRequired": true,
                            "propertyName": "deliveryName",
                            "propertyType": "String",
                            "uid": "24074637895"
                        },
                        {
                            "allowedFileTypes": "",
                            "maxItems": "1",
                            "propertyDescription": "",
                            "propertyIsExcludeField": false,
                            "propertyIsL10nModeExclude": false,
                            "propertyIsRequired": true,
                            "propertyName": "deliveryAddress",
                            "propertyType": "String",
                            "uid": "1147778369300"
                        },
                        {
                            "allowedFileTypes": "",
                            "maxItems": "1",
                            "propertyDescription": "",
                            "propertyIsExcludeField": false,
                            "propertyIsL10nModeExclude": false,
                            "propertyIsRequired": true,
                            "propertyName": "deliveryZip",
                            "propertyType": "String",
                            "uid": "1550543831122"
                        },
                        {
                            "allowedFileTypes": "",
                            "maxItems": "1",
                            "propertyDescription": "",
                            "propertyIsExcludeField": false,
                            "propertyIsL10nModeExclude": false,
                            "propertyIsRequired": true,
                            "propertyName": "deliveryCity",
                            "propertyType": "String",
                            "uid": "923948425133"
                        },
                        {
                            "allowedFileTypes": "",
                            "maxItems": "1",
                            "propertyDescription": "",
                            "propertyIsExcludeField": false,
                            "propertyIsL10nModeExclude": false,
                            "propertyIsRequired": true,
                            "propertyName": "email",
                            "propertyType": "Email",
                            "uid": "1480921304036"
                        },
                        {
                            "allowedFileTypes": "",
                            "maxItems": "1",
                            "propertyDescription": "",
                            "propertyIsExcludeField": false,
                            "propertyIsL10nModeExclude": false,
                            "propertyIsRequired": false,
                            "propertyName": "deliveryDate",
                            "propertyType": "NativeDate",
                            "uid": "1104435266390"
                        },
                        {
                            "allowedFileTypes": "",
                            "maxItems": "1",
                            "propertyDescription": "",
                            "propertyIsExcludeField": false,
                            "propertyIsL10nModeExclude": false,
                            "propertyIsRequired": false,
                            "propertyName": "price",
                            "propertyType": "Float",
                            "uid": "260320152838"
                        },
                        {
                            "allowedFileTypes": "",
                            "maxItems": "1",
                            "propertyDescription": "",
                            "propertyIsExcludeField": false,
                            "propertyIsL10nModeExclude": false,
                            "propertyIsRequired": true,
                            "propertyName": "exported",
                            "propertyType": "Boolean",
                            "uid": "120456065931"
                        }
                    ]
                },
                "relationGroup": {
                    "relations": [
                        {
                            "foreignRelationClass": "",
                            "lazyLoading": false,
                            "propertyIsExcludeField": true,
                            "relationDescription": "",
                            "relationName": "products",
                            "relationType": "manyToOne",
                            "relationWire": "[wired]",
                            "renderType": "selectSingle",
                            "uid": "900289150759"
                        }
                    ]
                }
            }
        },
        {
            "config": {
                "position": [
                    80,
                    257
                ]
            },
            "name": "New Model Object",
            "value": {
                "actionGroup": {
                    "_default0_list": true,
                    "_default1_show": false,
                    "_default2_new_create": false,
                    "_default3_edit_update": false,
                    "_default4_delete": false,
                    "customActions": []
                },
                "name": "User",
                "objectsettings": {
                    "addDeletedField": true,
                    "addHiddenField": true,
                    "addStarttimeEndtimeFields": true,
                    "aggregateRoot": true,
                    "categorizable": false,
                    "description": "",
                    "mapToTable": "fe_users",
                    "parentClass": "\\TYPO3\\CMS\\Extbase\\Domain\\Model\\FrontendUser",
                    "sorting": false,
                    "type": "Entity",
                    "uid": "1467142716221"
                },
                "propertyGroup": {
                    "properties": []
                },
                "relationGroup": {
                    "relations": [
                        {
                            "foreignRelationClass": "",
                            "lazyLoading": true,
                            "propertyIsExcludeField": false,
                            "relationDescription": "",
                            "relationName": "orders",
                            "relationType": "zeroToMany",
                            "relationWire": "[wired]",
                            "renderType": "inline",
                            "uid": "155710978944"
                        }
                    ]
                }
            }
        },
        {
            "config": {
                "position": [
                    96,
                    498
                ]
            },
            "name": "New Model Object",
            "value": {
                "actionGroup": {
                    "_default0_list": true,
                    "_default1_show": false,
                    "_default2_new_create": false,
                    "_default3_edit_update": false,
                    "_default4_delete": false,
                    "customActions": []
                },
                "name": "OrderBackend",
                "objectsettings": {
                    "addDeletedField": true,
                    "addHiddenField": true,
                    "addStarttimeEndtimeFields": true,
                    "aggregateRoot": false,
                    "categorizable": false,
                    "description": "",
                    "mapToTable": "",
                    "parentClass": "",
                    "sorting": false,
                    "type": "Entity",
                    "uid": "1001828876921"
                },
                "propertyGroup": {
                    "properties": [
                        {
                            "allowedFileTypes": "",
                            "maxItems": "1",
                            "propertyDescription": "",
                            "propertyIsExcludeField": true,
                            "propertyIsL10nModeExclude": false,
                            "propertyIsRequired": false,
                            "propertyName": "dummy",
                            "propertyType": "String",
                            "uid": "1281401350239"
                        }
                    ]
                },
                "relationGroup": {
                    "relations": []
                }
            }
        }
    ],
    "properties": {
        "backendModules": [
            {
                "actions": {
                    "controllerActionCombinations": "OrderBackend=>list"
                },
                "description": "Liste der Bestellungen",
                "key": "product",
                "mainModule": "web",
                "name": "Bestellungen",
                "tabLabel": "Bestellungen"
            }
        ],
        "description": "Produktliste + Bestellung",
        "emConf": {
            "category": "plugin",
            "custom_category": "",
            "dependsOn": "typo3 => 9.5.0-9.5.99\n",
            "disableLocalization": false,
            "disableVersioning": false,
            "skipGenerateDocumentationTemplate": false,
            "sourceLanguage": "en",
            "state": "alpha",
            "targetVersion": "9.5.0-9.5.99",
            "version": "1.0.0"
        },
        "extensionKey": "products",
        "name": "Produkte",
        "originalExtensionKey": "products",
        "originalVendorName": "ITS",
        "persons": [
            {
                "company": "brand new media",
                "email": "kontakt@brandnewmedia.it",
                "name": "Axel Brand",
                "role": "Developer"
            }
        ],
        "plugins": [
            {
                "actions": {
                    "controllerActionCombinations": "Product=>list,show\nOrder=>new,create,userOrders\nUser=>list",
                    "noncacheableActions": "Product=>list\nOrder=>create,new,userOrders\nUser=>list",
                    "switchableActions": "Liste\nProduct->list\nDetails\nProduct->show\nBestellung\nOrder->new; Order->create\nBenutzerliste\nUser->list"
                },
                "description": "Produktliste + Details",
                "key": "product",
                "name": "Produkte"
            }
        ],
        "vendorName": "ITS"
    },
    "wires": [
        {
            "src": {
                "moduleId": 0,
                "terminal": "relationWire_0",
                "uid": "622144583497"
            },
            "tgt": {
                "moduleId": 1,
                "terminal": "SOURCES",
                "uid": "201833567233"
            }
        },
        {
            "src": {
                "moduleId": 2,
                "terminal": "relationWire_0",
                "uid": "900289150759"
            },
            "tgt": {
                "moduleId": 0,
                "terminal": "SOURCES",
                "uid": "166963226953"
            }
        },
        {
            "src": {
                "moduleId": 3,
                "terminal": "relationWire_0",
                "uid": "155710978944"
            },
            "tgt": {
                "moduleId": 2,
                "terminal": "SOURCES",
                "uid": "1415844169053"
            }
        }
    ],
    "log": {
        "last_modified": "2019-09-18 02:50",
        "extension_builder_version": "9.10.0",
        "be_user": " (1)"
    }
}